[
  {
    "id": "natural-language-processing",
    "title": "Natural language processing",
    "children": [
      {
        "id": "question-answering",
        "title": "Question Answering",
        "image": "https://paperswithcode.com/media/thumbnails/task/task-0000000009-ec44a5b4_7kNCQOz.jpg",
        "description": "A question answering implementation, usually a computer program, may construct its answers by querying a structured database of knowledge or information, usually a knowledge base. More commonly, question answering systems can pull answers from an unstructured collection of natural language.",
        "input_features": [
          {
            "name": "context",
            "type": "textarea",
            "value": "The Matrix is a 1999 science fiction action film written and directed by The Wachowskis, starring Keanu Reeves, Laurence Fishburne, Carrie-Anne Moss, Hugo Weaving, and Joe Pantoliano. It depicts a dystopian future in which reality as perceived by most humans is actually a simulated reality called 'the Matrix', created by sentient machines to subdue the human population, while their bodies' heat and electrical activity are used as an energy source. Computer programmer 'Neo' learns this truth and is drawn into a rebellion against the machines, which involves other people who have been freed from the dream world."
          },
          {
            "name": "question",
            "type": "text",
            "value": "Who stars in The Matrix?"
          }
        ],
        "output_features": [
          {
            "name": "answer"
          }
        ],
        "status": {
          "variant": "success",
          "label": "No demo"
        }
      }
    ]
  },
  {
    "id": "computer-vision",
    "title": "Computer Vision",
    "children": [
      {
        "id": "image-segmentation",
        "title": "Image Segmentation",
        "image": "https://paperswithcode.com/media/thumbnails/task/task-0000000885-5d13a681_ZOc2kft.jpg",
        "description": "In digital image processing and computer vision, image segmentation is the process of partitioning a digital image into multiple segments (sets of pixels, also known as image objects). The goal of segmentation is to simplify and/or change the representation of an image into something that is more meaningful and easier to analyze.<br/><br/> Image segmentation is typically used to locate objects and boundaries (lines, curves, etc.) in images. More precisely, image segmentation is the process of assigning a label to every pixel in an image such that pixels with the same label share certain characteristics.",
        "algorithms": {
          "AlexNet": "Toronto’s pioneering deep CNN that won the 2012 ImageNet competition with a test accuracy of 84.6%. It consists of 5 convolutional layers, max-pooling ones, ReLUs as non-linearities, 3 fully-convolutional layers, and dropout.",
          "VGG-16": "This Oxford’s model won the 2013 ImageNet competition with 92.7% accuracy. It uses a stack of convolution layers with small receptive fields in the first layers instead of few layers with big receptive fields.",
          "GoogLeNet": "This Google’s network won the 2014 ImageNet competition with accuracy of 93.3%. It is composed by 22 layers and a newly introduced building block called inception module. The module consists of a Network-in-Network layer, a pooling operation, a large-sized convolution layer, and small-sized convolution layer.",
          "ResNet": "This Microsoft’s model won the 2016 ImageNet competition with 96.4 % accuracy. It is well-known due to its depth (152 layers) and the introduction of residual blocks. The residual blocks address the problem of training a really deep architecture by introducing identity skip connections so that layers can copy their inputs to the next layer."
        },
        "resources": [
          "https://nanonets.com/blog/how-to-do-semantic-segmentation-using-deep-learning/"
        ],
        "input_features": [
          {
            "name": "image",
            "type": "file"
          }
        ],
        "output_features": [
          {
            "name": "data",
            "type": "image"
          }
        ],
        "video": {
          "title": "What is segmentation?",
          "src": "https://www.youtube.com/embed/ahJG_0uzOqA"
        },
        "status": {
          "variant": "success",
          "label": "Demo"
        }
      }
    ]
  },
  {
    "id": "classification",
    "title": "Classification",
    "children": [

      {
        "id": "sentiment-classification",
        "title": "Sentiment Classification",
        "image": "https://paperswithcode.com/media/thumbnails/task/task-0000000009-ec44a5b4_7kNCQOz.jpg",
        "description": "Sentiment analysis (also known as opinion mining or emotion AI) refers to the use of natural language processing, text analysis, computational linguistics, and biometrics to systematically identify, extract, quantify, and study affective states and subjective information. Sentiment analysis is widely applied to voice of the customer materials such as reviews and survey responses, online and social media, and healthcare materials for applications that range from marketing to customer service to clinical medicine.",
        "input_features": [
          {
            "name": "sentence",
            "type": "text",
            "value": "this is good"
          }
        ],
        "output_features": [
          {
            "name": "sentiment",
            "type": "number"
          }
        ],
        "status": {
          "variant": "success",
          "label": "Demo"
        }
      }
    ],
    "input_features": [],
    "output_features": []
  }
]
